…
## Calculate and plot statistics

Calculate minimum, mean and maximum and plot them:

``` r
summarise_at(simulations, .vars = "f", .funs = c("min", "mean", "max"))
#> # A tibble: 1,001 x 4
#>     time   min  mean   max
#>    <dbl> <dbl> <dbl> <dbl>
#>  1   0    1     1     1   
#>  2   0.1  1.67  1.67  1.67
#>  3   0.2  2.33  2.33  2.33
#>  4   0.3  2.98  2.98  2.98
#>  5   0.4  3.43  3.60  3.61
#>  6   0.5  3.36  4.15  4.24
#>  7   0.6  3.30  4.69  4.84
#>  8   0.7  3.23  5.22  5.44
#>  9   0.8  3.17  5.74  6.03
#> 10   0.9  3.11  6.25  6.60
#> # … with 991 more rows
…
